%YAML 1.1
%TAG !u! tag:unity3d.com,2011:
--- !u!1 &1235986356121628616
GameObject:
  m_ObjectHideFlags: 0
  m_CorrespondingSourceObject: {fileID: 0}
  m_PrefabInstance: {fileID: 0}
  m_PrefabAsset: {fileID: 0}
  serializedVersion: 6
  m_Component:
  - component: {fileID: 4203267235141524624}
  - component: {fileID: 7489680817218500508}
  m_Layer: 31
  m_Name: EnchantedForest
  m_TagString: Untagged
  m_Icon: {fileID: 0}
  m_NavMeshLayer: 0
  m_StaticEditorFlags: 0
  m_IsActive: 1
--- !u!4 &4203267235141524624
Transform:
  m_ObjectHideFlags: 0
  m_CorrespondingSourceObject: {fileID: 0}
  m_PrefabInstance: {fileID: 0}
  m_PrefabAsset: {fileID: 0}
  m_GameObject: {fileID: 1235986356121628616}
  m_LocalRotation: {x: 0, y: 0, z: 0, w: 1}
  m_LocalPosition: {x: 0, y: 0, z: 0}
  m_LocalScale: {x: 1, y: 1, z: 1}
  m_Children:
  - {fileID: 7005063686173050531}
  m_Father: {fileID: 0}
  m_RootOrder: 0
  m_LocalEulerAnglesHint: {x: 0, y: 0, z: 0}
--- !u!156049354 &7489680817218500508
Grid:
  m_ObjectHideFlags: 0
  m_CorrespondingSourceObject: {fileID: 0}
  m_PrefabInstance: {fileID: 0}
  m_PrefabAsset: {fileID: 0}
  m_GameObject: {fileID: 1235986356121628616}
  m_Enabled: 1
  m_CellSize: {x: 1, y: 1, z: 0}
  m_CellGap: {x: 0, y: 0, z: 0}
  m_CellLayout: 0
  m_CellSwizzle: 0
--- !u!1 &9011944787790269863
GameObject:
  m_ObjectHideFlags: 0
  m_CorrespondingSourceObject: {fileID: 0}
  m_PrefabInstance: {fileID: 0}
  m_PrefabAsset: {fileID: 0}
  serializedVersion: 6
  m_Component:
  - component: {fileID: 7005063686173050531}
  - component: {fileID: 1755909439438506445}
  - component: {fileID: 3278214123423774002}
  m_Layer: 31
  m_Name: Layer1
  m_TagString: Untagged
  m_Icon: {fileID: 0}
  m_NavMeshLayer: 0
  m_StaticEditorFlags: 0
  m_IsActive: 1
--- !u!4 &7005063686173050531
Transform:
  m_ObjectHideFlags: 0
  m_CorrespondingSourceObject: {fileID: 0}
  m_PrefabInstance: {fileID: 0}
  m_PrefabAsset: {fileID: 0}
  m_GameObject: {fileID: 9011944787790269863}
  m_LocalRotation: {x: -0, y: -0, z: -0, w: 1}
  m_LocalPosition: {x: 0, y: 0, z: 0}
  m_LocalScale: {x: 1, y: 1, z: 1}
  m_Children: []
  m_Father: {fileID: 4203267235141524624}
  m_RootOrder: 0
  m_LocalEulerAnglesHint: {x: 0, y: 0, z: 0}
--- !u!1839735485 &1755909439438506445
Tilemap:
  m_ObjectHideFlags: 0
  m_CorrespondingSourceObject: {fileID: 0}
  m_PrefabInstance: {fileID: 0}
  m_PrefabAsset: {fileID: 0}
  m_GameObject: {fileID: 9011944787790269863}
  m_Enabled: 1
  m_Tiles:
  - first: {x: 0, y: -6, z: 0}
    second:
      m_TileIndex: 19
      m_TileSpriteIndex: 19
      m_TileMatrixIndex: 0
      m_TileColorIndex: 0
      m_ObjectToInstantiate: {fileID: 0}
      m_TileFlags: 1
      m_ColliderType: 1
  - first: {x: 1, y: -6, z: 0}
    second:
      m_TileIndex: 20
      m_TileSpriteIndex: 20
      m_TileMatrixIndex: 0
      m_TileColorIndex: 0
      m_ObjectToInstantiate: {fileID: 0}
      m_TileFlags: 1
      m_ColliderType: 1
  - first: {x: 0, y: -5, z: 0}
    second:
      m_TileIndex: 17
      m_TileSpriteIndex: 17
      m_TileMatrixIndex: 0
      m_TileColorIndex: 0
      m_ObjectToInstantiate: {fileID: 0}
      m_TileFlags: 1
      m_ColliderType: 1
  - first: {x: 1, y: -5, z: 0}
    second:
      m_TileIndex: 18
      m_TileSpriteIndex: 18
      m_TileMatrixIndex: 0
      m_TileColorIndex: 0
      m_ObjectToInstantiate: {fileID: 0}
      m_TileFlags: 1
      m_ColliderType: 1
  - first: {x: 3, y: -4, z: 0}
    second:
      m_TileIndex: 15
      m_TileSpriteIndex: 15
      m_TileMatrixIndex: 0
      m_TileColorIndex: 0
      m_ObjectToInstantiate: {fileID: 0}
      m_TileFlags: 1
      m_ColliderType: 1
  - first: {x: 4, y: -4, z: 0}
    second:
      m_TileIndex: 16
      m_TileSpriteIndex: 16
      m_TileMatrixIndex: 0
      m_TileColorIndex: 0
      m_ObjectToInstantiate: {fileID: 0}
      m_TileFlags: 1
      m_ColliderType: 1
  - first: {x: -1, y: -3, z: 0}
    second:
      m_TileIndex: 9
      m_TileSpriteIndex: 9
      m_TileMatrixIndex: 0
      m_TileColorIndex: 0
      m_ObjectToInstantiate: {fileID: 0}
      m_TileFlags: 1
      m_ColliderType: 1
  - first: {x: 0, y: -3, z: 0}
    second:
      m_TileIndex: 10
      m_TileSpriteIndex: 10
      m_TileMatrixIndex: 0
      m_TileColorIndex: 0
      m_ObjectToInstantiate: {fileID: 0}
      m_TileFlags: 1
      m_ColliderType: 1
  - first: {x: 1, y: -3, z: 0}
    second:
      m_TileIndex: 11
      m_TileSpriteIndex: 11
      m_TileMatrixIndex: 0
      m_TileColorIndex: 0
      m_ObjectToInstantiate: {fileID: 0}
      m_TileFlags: 1
      m_ColliderType: 1
  - first: {x: -2, y: -2, z: 0}
    second:
      m_TileIndex: 5
      m_TileSpriteIndex: 5
      m_TileMatrixIndex: 0
      m_TileColorIndex: 0
      m_ObjectToInstantiate: {fileID: 0}
      m_TileFlags: 1
      m_ColliderType: 1
  - first: {x: -1, y: -2, z: 0}
    second:
      m_TileIndex: 6
      m_TileSpriteIndex: 6
      m_TileMatrixIndex: 0
      m_TileColorIndex: 0
      m_ObjectToInstantiate: {fileID: 0}
      m_TileFlags: 1
      m_ColliderType: 1
  - first: {x: 0, y: -2, z: 0}
    second:
      m_TileIndex: 7
      m_TileSpriteIndex: 7
      m_TileMatrixIndex: 0
      m_TileColorIndex: 0
      m_ObjectToInstantiate: {fileID: 0}
      m_TileFlags: 1
      m_ColliderType: 1
  - first: {x: 1, y: -2, z: 0}
    second:
      m_TileIndex: 8
      m_TileSpriteIndex: 8
      m_TileMatrixIndex: 0
      m_TileColorIndex: 0
      m_ObjectToInstantiate: {fileID: 0}
      m_TileFlags: 1
      m_ColliderType: 1
  - first: {x: 3, y: -1, z: 0}
    second:
      m_TileIndex: 14
      m_TileSpriteIndex: 14
      m_TileMatrixIndex: 0
      m_TileColorIndex: 0
      m_ObjectToInstantiate: {fileID: 0}
      m_TileFlags: 1
      m_ColliderType: 1
  - first: {x: 5, y: -1, z: 0}
    second:
      m_TileIndex: 13
      m_TileSpriteIndex: 13
      m_TileMatrixIndex: 0
      m_TileColorIndex: 0
      m_ObjectToInstantiate: {fileID: 0}
      m_TileFlags: 1
      m_ColliderType: 1
  - first: {x: -1, y: 0, z: 0}
    second:
      m_TileIndex: 0
      m_TileSpriteIndex: 4
      m_TileMatrixIndex: 0
      m_TileColorIndex: 0
      m_ObjectToInstantiate: {fileID: 0}
      m_TileFlags: 2
      m_ColliderType: 1
  - first: {x: 0, y: 0, z: 0}
    second:
      m_TileIndex: 1
      m_TileSpriteIndex: 3
      m_TileMatrixIndex: 0
      m_TileColorIndex: 0
      m_ObjectToInstantiate: {fileID: 0}
      m_TileFlags: 2
      m_ColliderType: 1
  - first: {x: 1, y: 0, z: 0}
    second:
      m_TileIndex: 12
      m_TileSpriteIndex: 12
      m_TileMatrixIndex: 0
      m_TileColorIndex: 0
      m_ObjectToInstantiate: {fileID: 0}
      m_TileFlags: 2
      m_ColliderType: 1
  - first: {x: 3, y: 0, z: 0}
    second:
      m_TileIndex: 2
      m_TileSpriteIndex: 0
      m_TileMatrixIndex: 0
      m_TileColorIndex: 0
      m_ObjectToInstantiate: {fileID: 0}
      m_TileFlags: 1
      m_ColliderType: 1
  - first: {x: 4, y: 0, z: 0}
    second:
      m_TileIndex: 4
      m_TileSpriteIndex: 2
      m_TileMatrixIndex: 0
      m_TileColorIndex: 0
      m_ObjectToInstantiate: {fileID: 0}
      m_TileFlags: 1
      m_ColliderType: 1
  - first: {x: 5, y: 0, z: 0}
    second:
      m_TileIndex: 3
      m_TileSpriteIndex: 1
      m_TileMatrixIndex: 0
      m_TileColorIndex: 0
      m_ObjectToInstantiate: {fileID: 0}
      m_TileFlags: 1
      m_ColliderType: 1
  m_AnimatedTiles: {}
  m_TileAssetArray:
  - m_RefCount: 1
    m_Data: {fileID: 11400000, guid: 5cc9d1610f8968e41af0ef50db355818, type: 2}
  - m_RefCount: 1
    m_Data: {fileID: 11400000, guid: a31e1b146c70dc44c890f5e0c9ba18f1, type: 2}
  - m_RefCount: 1
    m_Data: {fileID: 11400000, guid: 20b19e53c0c360d4db4af762688e5a9b, type: 2}
  - m_RefCount: 1
    m_Data: {fileID: 11400000, guid: fa07f49d97a906443b0dc02f40bbb864, type: 2}
  - m_RefCount: 1
    m_Data: {fileID: 11400000, guid: e0b01ef94f3b08a4f8e08371eef64640, type: 2}
  - m_RefCount: 1
    m_Data: {fileID: 11400000, guid: 47d3e2ae0c4bdcf4b8e9b4bb4dbf75d7, type: 2}
  - m_RefCount: 1
    m_Data: {fileID: 11400000, guid: 577e45ce33a416442a6cc68f1c60cf41, type: 2}
  - m_RefCount: 1
    m_Data: {fileID: 11400000, guid: 547ba0d9f127d18458b0e537433df604, type: 2}
  - m_RefCount: 1
    m_Data: {fileID: 11400000, guid: 922b02337d8f37d478187033b8ccd1bd, type: 2}
  - m_RefCount: 1
    m_Data: {fileID: 11400000, guid: c393ff16ec014864394208cab2cfc29b, type: 2}
  - m_RefCount: 1
    m_Data: {fileID: 11400000, guid: 6afcd990796ac2d409fab45bfcb788b2, type: 2}
  - m_RefCount: 1
    m_Data: {fileID: 11400000, guid: ae3d8b1bd4d967f4a88af7cce6dd1976, type: 2}
  - m_RefCount: 1
    m_Data: {fileID: 11400000, guid: 4b3d0aa7bf50a0f4e8e7434e0dfcd3aa, type: 2}
  - m_RefCount: 1
    m_Data: {fileID: 11400000, guid: 04e8e64ac27fbdf4c98df26ee5bde849, type: 2}
  - m_RefCount: 1
    m_Data: {fileID: 11400000, guid: 6e675f0f8b247ce4cb98b9334a40440a, type: 2}
  - m_RefCount: 1
    m_Data: {fileID: 11400000, guid: e167538a340d0034ca80102f8eeee09b, type: 2}
  - m_RefCount: 1
    m_Data: {fileID: 11400000, guid: 618bdbf750efec54e99d160291f03504, type: 2}
  - m_RefCount: 1
    m_Data: {fileID: 11400000, guid: 3bca8e4fb131b114ba3a6a9669528a96, type: 2}
  - m_RefCount: 1
    m_Data: {fileID: 11400000, guid: 19aa2253e039a804aafc5b325b3b11cd, type: 2}
  - m_RefCount: 1
    m_Data: {fileID: 11400000, guid: e7a4956baced8a34c8a1cfa033b2ff87, type: 2}
  - m_RefCount: 1
    m_Data: {fileID: 11400000, guid: 00330409fb11a00478523003a4b807c3, type: 2}
  m_TileSpriteArray:
  - m_RefCount: 1
    m_Data: {fileID: 21300000, guid: 9f8bbee09aa4a6b4da6bfe7c664e9c3b, type: 3}
  - m_RefCount: 1
    m_Data: {fileID: 21300000, guid: 4aea8b669a65d3f419725fd61f9cc67c, type: 3}
  - m_RefCount: 1
    m_Data: {fileID: 21300000, guid: c369a4b2e91326a499cbc517c1702475, type: 3}
  - m_RefCount: 1
    m_Data: {fileID: 21300000, guid: 057c4de863d749e4da55bbd72df66eca, type: 3}
  - m_RefCount: 1
    m_Data: {fileID: 21300000, guid: 7d361355632113b499c32bdef99947f8, type: 3}
  - m_RefCount: 1
    m_Data: {fileID: 21300000, guid: bcba725f4450f904d9e34f069d04ceaa, type: 3}
  - m_RefCount: 1
    m_Data: {fileID: 21300000, guid: 37ed2b2f59335dd448dae0aca1fa7c6c, type: 3}
  - m_RefCount: 1
    m_Data: {fileID: 21300000, guid: fd2dbcd5f3f078b4aa71537799566746, type: 3}
  - m_RefCount: 1
    m_Data: {fileID: 21300000, guid: cfc49c01d94de0d4391705a356689543, type: 3}
  - m_RefCount: 1
    m_Data: {fileID: 21300000, guid: 92fde6e270b0087428e50162fea0cd89, type: 3}
  - m_RefCount: 1
    m_Data: {fileID: 21300000, guid: 78b521594de193642b0e82879eaf4d17, type: 3}
  - m_RefCount: 1
    m_Data: {fileID: 21300000, guid: a2b47f6124f606344893f80adad354b5, type: 3}
  - m_RefCount: 1
    m_Data: {fileID: 21300000, guid: 9f7b2d4ad55a21e4cada3bb97c75e238, type: 3}
  - m_RefCount: 1
    m_Data: {fileID: 21300000, guid: d657532cd611a6a489916249595ba95b, type: 3}
  - m_RefCount: 1
    m_Data: {fileID: 21300000, guid: 9af0a82aca3c7b34ab6dd701466e5868, type: 3}
  - m_RefCount: 1
    m_Data: {fileID: 21300000, guid: 4dd7aa57e6833a4478fd546ff06d4084, type: 3}
  - m_RefCount: 1
    m_Data: {fileID: 21300000, guid: 120a11d1f3854ab4a8026a5608dfd369, type: 3}
  - m_RefCount: 1
    m_Data: {fileID: 7979690439873545077, guid: 6a83a6fa0f8e71746a0c51541a0895da,
      type: 3}
  - m_RefCount: 1
    m_Data: {fileID: -7857487666539158390, guid: 6a83a6fa0f8e71746a0c51541a0895da,
      type: 3}
  - m_RefCount: 1
    m_Data: {fileID: -6203213999711571058, guid: 6a83a6fa0f8e71746a0c51541a0895da,
      type: 3}
  - m_RefCount: 1
    m_Data: {fileID: 801244613812153448, guid: 6a83a6fa0f8e71746a0c51541a0895da, type: 3}
  m_TileMatrixArray:
  - m_RefCount: 21
    m_Data:
      e00: 1
      e01: 0
      e02: 0
      e03: 0
      e10: 0
      e11: 1
      e12: 0
      e13: 0
      e20: 0
      e21: 0
      e22: 1
      e23: 0
      e30: 0
      e31: 0
      e32: 0
      e33: 1
  m_TileColorArray:
  - m_RefCount: 21
    m_Data: {r: 1, g: 1, b: 1, a: 1}
  - m_RefCount: 0
    m_Data: {r: 1279.2617, g: 1279.2617, b: 1279.2617, a: 1279.2617}
  - m_RefCount: 0
    m_Data: {r: 1279.5078, g: 1279.5078, b: 1279.5078, a: 1279.5078}
  - m_RefCount: 0
    m_Data: {r: 1279.4941, g: 1279.4941, b: 1279.4941, a: 1279.4941}
  m_AnimationFrameRate: 1
  m_Color: {r: 1, g: 1, b: 1, a: 1}
  m_Origin: {x: -2, y: -6, z: 0}
  m_Size: {x: 8, y: 9, z: 1}
  m_TileAnchor: {x: 0.5, y: 0.5, z: 0}
  m_TileOrientation: 0
  m_TileOrientationMatrix:
    e00: 1
    e01: 0
    e02: 0
    e03: 0
    e10: 0
    e11: 1
    e12: 0
    e13: 0
    e20: 0
    e21: 0
    e22: 1
    e23: 0
    e30: 0
    e31: 0
    e32: 0
    e33: 1
--- !u!483693784 &3278214123423774002
TilemapRenderer:
  m_ObjectHideFlags: 0
  m_CorrespondingSourceObject: {fileID: 0}
  m_PrefabInstance: {fileID: 0}
  m_PrefabAsset: {fileID: 0}
  m_GameObject: {fileID: 9011944787790269863}
  m_Enabled: 0
  m_CastShadows: 0
  m_ReceiveShadows: 0
  m_DynamicOccludee: 0
  m_MotionVectors: 1
  m_LightProbeUsage: 0
  m_ReflectionProbeUsage: 0
  m_RenderingLayerMask: 1
  m_RendererPriority: 0
  m_Materials:
  - {fileID: 10754, guid: 0000000000000000f000000000000000, type: 0}
  m_StaticBatchInfo:
    firstSubMesh: 0
    subMeshCount: 0
  m_StaticBatchRoot: {fileID: 0}
  m_ProbeAnchor: {fileID: 0}
  m_LightProbeVolumeOverride: {fileID: 0}
  m_ScaleInLightmap: 1
  m_ReceiveGI: 1
  m_PreserveUVs: 0
  m_IgnoreNormalsForChartDetection: 0
  m_ImportantGI: 0
  m_StitchLightmapSeams: 1
  m_SelectedEditorRenderState: 0
  m_MinimumChartSize: 4
  m_AutoUVMaxDistance: 0.5
  m_AutoUVMaxAngle: 89
  m_LightmapParameters: {fileID: 0}
  m_SortingLayerID: 0
  m_SortingLayer: 0
  m_SortingOrder: 0
  m_ChunkSize: {x: 32, y: 32, z: 32}
  m_ChunkCullingBounds: {x: 0, y: 0, z: 0}
  m_MaxChunkCount: 16
  m_MaxFrameAge: 16
  m_SortOrder: 0
  m_Mode: 0
  m_DetectChunkCullingBounds: 0
  m_MaskInteraction: 0
--- !u!114 &7306682147099968702
MonoBehaviour:
  m_ObjectHideFlags: 0
  m_CorrespondingSourceObject: {fileID: 0}
  m_PrefabInstance: {fileID: 0}
  m_PrefabAsset: {fileID: 0}
  m_GameObject: {fileID: 0}
  m_Enabled: 1
  m_EditorHideFlags: 0
  m_Script: {fileID: 12395, guid: 0000000000000000e000000000000000, type: 0}
  m_Name: Palette Settings
  m_EditorClassIdentifier: 
  cellSizing: 0
