%YAML 1.1
%TAG !u! tag:unity3d.com,2011:
--- !u!114 &11400000
MonoBehaviour:
  m_ObjectHideFlags: 0
  m_CorrespondingSourceObject: {fileID: 0}
  m_PrefabInstance: {fileID: 0}
  m_PrefabAsset: {fileID: 0}
  m_GameObject: {fileID: 0}
  m_Enabled: 1
  m_EditorHideFlags: 0
  m_Script: {fileID: 11500000, guid: 649d8b8faa7954b98a85d1bffc737ad8, type: 3}
  m_Name: 81B1AFBF-B25C-4500-AB47-2654F78105D3
  m_EditorClassIdentifier: 
  objectName: Companion_Sounds
  id: 3029356348
  guid: 81B1AFBF-B25C-4500-AB47-2654F78105D3
