%YAML 1.1
%TAG !u! tag:unity3d.com,2011:
--- !u!78 &1
TagManager:
  serializedVersion: 2
  tags:
  - Walls
  - Projectile
  - Enemy
  - UI
  - Store Menu
  - Corpse
  - Companion
  - Player Start
  - Room
  - PlayerProjectileMaxDistance
  - Player Projectile
  - Aggro Trigger
  - Water
  layers:
  - Default
  - TransparentFX
  - Ignore Raycast
  - 
  - Water
  - UI
  - 
  - 
  - Player
  - Enemy
  - Player Projectile
  - Enemy Projectile
  - Trigger
  - Item
  - Corpse
  - Companion
  - Walls
  - Camera
  - Aggro Trigger
  - Helicat
  - 
  - 
  - 
  - 
  - 
  - 
  - 
  - 
  - 
  - 
  - 
  - 
  m_SortingLayers:
  - name: Ground
    uniqueID: 2969181079
    locked: 0
  - name: Environment
    uniqueID: 1954658709
    locked: 0
  - name: Corpses
    uniqueID: 949401407
    locked: 0
  - name: Items
    uniqueID: 1808987705
    locked: 0
  - name: Entities
    uniqueID: 238904293
    locked: 0
  - name: Projectiles
    uniqueID: 1442748147
    locked: 0
  - name: Default
    uniqueID: 0
    locked: 0
  - name: ForwardTrees
    uniqueID: 370732769
    locked: 0
  - name: UI
    uniqueID: 1181612093
    locked: 0
