%YAML 1.1
%TAG !u! tag:unity3d.com,2011:
--- !u!114 &11400000
MonoBehaviour:
  m_ObjectHideFlags: 0
  m_CorrespondingSourceObject: {fileID: 0}
  m_PrefabInstance: {fileID: 0}
  m_PrefabAsset: {fileID: 0}
  m_GameObject: {fileID: 0}
  m_Enabled: 1
  m_EditorHideFlags: 0
  m_Script: {fileID: 11500000, guid: 33a4c2cf419c98349baf0d53e650d780, type: 3}
  m_Name: Aim
  m_EditorClassIdentifier: 
  xboxOne: {fileID: 21300000, guid: 31a73192f4f356a4a9faf933a4806373, type: 3}
  xbox360: {fileID: 21300000, guid: 31a73192f4f356a4a9faf933a4806373, type: 3}
  dualshock4: {fileID: 21300000, guid: 4a3bbcba65dc2944fa485f6271044783, type: 3}
  mouseKeyboard: {fileID: 21300000, guid: 1520ec0d1336ab948859d86dde5ca74e, type: 3}
