%YAML 1.1
%TAG !u! tag:unity3d.com,2011:
--- !u!114 &11400000
MonoBehaviour:
  m_ObjectHideFlags: 0
  m_CorrespondingSourceObject: {fileID: 0}
  m_PrefabInstance: {fileID: 0}
  m_PrefabAsset: {fileID: 0}
  m_GameObject: {fileID: 0}
  m_Enabled: 1
  m_EditorHideFlags: 0
  m_Script: {fileID: 11500000, guid: 33a4c2cf419c98349baf0d53e650d780, type: 3}
  m_Name: Interact
  m_EditorClassIdentifier: 
  xboxOne: {fileID: 21300000, guid: dbb5f8e17fd3fcc42a298488a861c140, type: 3}
  xbox360: {fileID: 21300000, guid: dbb5f8e17fd3fcc42a298488a861c140, type: 3}
  dualshock4: {fileID: 21300000, guid: ce918df3321a29c41a39a217d768d582, type: 3}
  dualshock3: {fileID: 21300000, guid: ce918df3321a29c41a39a217d768d582, type: 3}
  mouseKeyboard: {fileID: 21300000, guid: 4cd452c0f6e835d4f992ecdaa178ef15, type: 3}
