%YAML 1.1
%TAG !u! tag:unity3d.com,2011:
--- !u!114 &11400000
MonoBehaviour:
  m_ObjectHideFlags: 0
  m_CorrespondingSourceObject: {fileID: 0}
  m_PrefabInstance: {fileID: 0}
  m_PrefabAsset: {fileID: 0}
  m_GameObject: {fileID: 0}
  m_Enabled: 1
  m_EditorHideFlags: 0
  m_Script: {fileID: 11500000, guid: b726df1ccff5447498fbb1a8e4498b68, type: 3}
  m_Name: 2FB63C36-8262-494F-86BA-A92CEB692920
  m_EditorClassIdentifier: 
  objectName: Credit
  id: 4072209002
  guid: 2FB63C36-8262-494F-86BA-A92CEB692920
  WwiseStateGroupReference: {fileID: 11400000, guid: c26fce0570f614821b0d3b56d8e4c8c5,
    type: 2}
