%YAML 1.1
%TAG !u! tag:unity3d.com,2011:
--- !u!114 &11400000
MonoBehaviour:
  m_ObjectHideFlags: 0
  m_CorrespondingSourceObject: {fileID: 0}
  m_PrefabInstance: {fileID: 0}
  m_PrefabAsset: {fileID: 0}
  m_GameObject: {fileID: 0}
  m_Enabled: 1
  m_EditorHideFlags: 0
  m_Script: {fileID: 11500000, guid: b726df1ccff5447498fbb1a8e4498b68, type: 3}
  m_Name: EFB23043-6657-4976-ABC5-F0A0A2D75A79
  m_EditorClassIdentifier: 
  objectName: Menu
  id: 2607556080
  guid: EFB23043-6657-4976-ABC5-F0A0A2D75A79
  WwiseStateGroupReference: {fileID: 11400000, guid: 5500fb7b52fa243e1a2e65733e948c0c,
    type: 2}
