%YAML 1.1
%TAG !u! tag:unity3d.com,2011:
--- !u!114 &11400000
MonoBehaviour:
  m_ObjectHideFlags: 0
  m_CorrespondingSourceObject: {fileID: 0}
  m_PrefabInstance: {fileID: 0}
  m_PrefabAsset: {fileID: 0}
  m_GameObject: {fileID: 0}
  m_Enabled: 1
  m_EditorHideFlags: 0
  m_Script: {fileID: 11500000, guid: 357c7d23a275f4a6ca2a6894a7271f28, type: 3}
  m_Name: 25943126-4880-4A9E-9D43-ABAC04C6A291
  m_EditorClassIdentifier: 
  objectName: Portal_Enter
  id: 2952260872
  guid: 25943126-4880-4A9E-9D43-ABAC04C6A291
