%YAML 1.1
%TAG !u! tag:unity3d.com,2011:
--- !u!114 &11400000
MonoBehaviour:
  m_ObjectHideFlags: 0
  m_CorrespondingSourceObject: {fileID: 0}
  m_PrefabInstance: {fileID: 0}
  m_PrefabAsset: {fileID: 0}
  m_GameObject: {fileID: 0}
  m_Enabled: 1
  m_EditorHideFlags: 0
  m_Script: {fileID: 11500000, guid: 357c7d23a275f4a6ca2a6894a7271f28, type: 3}
  m_Name: 529D557A-BAA9-4AD2-9BF5-9576A40FE0A1
  m_EditorClassIdentifier: 
  objectName: Borcupine_Idle
  id: 984078833
  guid: 529D557A-BAA9-4AD2-9BF5-9576A40FE0A1
