%YAML 1.1
%TAG !u! tag:unity3d.com,2011:
--- !u!114 &1469765092
MonoBehaviour:
  m_ObjectHideFlags: 0
  m_CorrespondingSourceObject: {fileID: 0}
  m_PrefabInstance: {fileID: 0}
  m_PrefabAsset: {fileID: 0}
  m_GameObject: {fileID: 2670723227475937294}
  m_Enabled: 1
  m_EditorHideFlags: 0
  m_Script: {fileID: 11500000, guid: 74e0ed6e6f982ea4ca9204310869debb, type: 3}
  m_Name: 
  m_EditorClassIdentifier: 
  damage: 1
  cooldown: 0.5
  projectileSpeed: 5
  projectileSize: 0.3
  numProjectiles: 12
  spreadAngle: 360
  projectilePrefab: {fileID: 3988743595171379087, guid: 551f0b1efe770144cae2c3cd90c00cb1,
    type: 3}
  spawnDistance: 0
  OnShoot:
    m_PersistentCalls:
      m_Calls: []
  minSpeed: 2
  maxSpeed: 10
  countdown: 0.3
--- !u!1001 &1318021467779858305
PrefabInstance:
  m_ObjectHideFlags: 0
  serializedVersion: 2
  m_Modification:
    m_TransformParent: {fileID: 0}
    m_Modifications:
    - target: {fileID: 3988743595171379087, guid: 551f0b1efe770144cae2c3cd90c00cb1,
        type: 3}
      propertyPath: m_Name
      value: PlayerBomb Variant
      objectReference: {fileID: 0}
    - target: {fileID: 3988743595171379083, guid: 551f0b1efe770144cae2c3cd90c00cb1,
        type: 3}
      propertyPath: m_LocalPosition.x
      value: 17.044409
      objectReference: {fileID: 0}
    - target: {fileID: 3988743595171379083, guid: 551f0b1efe770144cae2c3cd90c00cb1,
        type: 3}
      propertyPath: m_LocalPosition.y
      value: 6.2772193
      objectReference: {fileID: 0}
    - target: {fileID: 3988743595171379083, guid: 551f0b1efe770144cae2c3cd90c00cb1,
        type: 3}
      propertyPath: m_LocalPosition.z
      value: 0
      objectReference: {fileID: 0}
    - target: {fileID: 3988743595171379083, guid: 551f0b1efe770144cae2c3cd90c00cb1,
        type: 3}
      propertyPath: m_LocalRotation.x
      value: 0
      objectReference: {fileID: 0}
    - target: {fileID: 3988743595171379083, guid: 551f0b1efe770144cae2c3cd90c00cb1,
        type: 3}
      propertyPath: m_LocalRotation.y
      value: 0
      objectReference: {fileID: 0}
    - target: {fileID: 3988743595171379083, guid: 551f0b1efe770144cae2c3cd90c00cb1,
        type: 3}
      propertyPath: m_LocalRotation.z
      value: 0
      objectReference: {fileID: 0}
    - target: {fileID: 3988743595171379083, guid: 551f0b1efe770144cae2c3cd90c00cb1,
        type: 3}
      propertyPath: m_LocalRotation.w
      value: 1
      objectReference: {fileID: 0}
    - target: {fileID: 3988743595171379083, guid: 551f0b1efe770144cae2c3cd90c00cb1,
        type: 3}
      propertyPath: m_RootOrder
      value: 0
      objectReference: {fileID: 0}
    - target: {fileID: 3988743595171379083, guid: 551f0b1efe770144cae2c3cd90c00cb1,
        type: 3}
      propertyPath: m_LocalEulerAnglesHint.x
      value: 0
      objectReference: {fileID: 0}
    - target: {fileID: 3988743595171379083, guid: 551f0b1efe770144cae2c3cd90c00cb1,
        type: 3}
      propertyPath: m_LocalEulerAnglesHint.y
      value: 0
      objectReference: {fileID: 0}
    - target: {fileID: 3988743595171379083, guid: 551f0b1efe770144cae2c3cd90c00cb1,
        type: 3}
      propertyPath: m_LocalEulerAnglesHint.z
      value: 0
      objectReference: {fileID: 0}
    - target: {fileID: 3988743595171379085, guid: 551f0b1efe770144cae2c3cd90c00cb1,
        type: 3}
      propertyPath: damage
      value: 5
      objectReference: {fileID: 0}
    m_RemovedComponents: []
  m_SourcePrefab: {fileID: 100100000, guid: 551f0b1efe770144cae2c3cd90c00cb1, type: 3}
--- !u!1 &2670723227475937294 stripped
GameObject:
  m_CorrespondingSourceObject: {fileID: 3988743595171379087, guid: 551f0b1efe770144cae2c3cd90c00cb1,
    type: 3}
  m_PrefabInstance: {fileID: 1318021467779858305}
  m_PrefabAsset: {fileID: 0}
